{
  "diffEditor.ignoreTrimWhitespace": false,
  "diffEditor.renderSideBySide": true,
  "editor.defaultFormatter": "esbenp.prettier-vscode",
  "editor.fontFamily": "'Fira Code', Menlo, Monaco, 'Courier New', monspace",
  "editor.fontLigatures": true,
  "editor.fontSize": 15,
  "editor.fontWeight": 400,
  "editor.formatOnSave": true,
  "editor.lineHeight": 22,
  "editor.tabSize": 2,
  "eslint.rules.customizations": [
    { "rule": "*", "severity": "info" },
    { "rule": "prettier/prettier", "severity": "off" }
  ],
  "files.autoSave": "onWindowChange",
  "files.exclude": {
    "**/.DS_Store": true,
    "**/.git": true,
    "**/node_modules": true
  },
  "git.enableSmartCommit": true,
  "typescript.updateImportsOnFileMove.enabled": "never",
  "window.menuBarVisibility": "toggle",
  "workbench.colorTheme": "Bluloco Dark",
  "workbench.iconTheme": "vscode-icons",
  "workbench.tree.indent": 20,
  "remote.SSH.remotePlatform": {
    "leia": "linux"
  },
  "vsicons.dontShowNewVersionMessage": true,
  "git.confirmSync": false,
  "security.workspace.trust.untrustedFiles": "open",
  "git.autofetch": true,
  "javascript.updateImportsOnFileMove.enabled": "never",
  "[mjml]": {
    "editor.defaultFormatter": "attilabuti.vscode-mjml"
  },
  "[typescript]": {},
  "emmet.showAbbreviationSuggestions": false,
  "emmet.showExpandedAbbreviation": "never"
}
